EESchema Schematic File Version 2
LIBS:power
LIBS:device
LIBS:transistors
LIBS:conn
LIBS:linear
LIBS:regul
LIBS:74xx
LIBS:cmos4000
LIBS:adc-dac
LIBS:memory
LIBS:xilinx
LIBS:microcontrollers
LIBS:dsp
LIBS:microchip
LIBS:analog_switches
LIBS:motorola
LIBS:texas
LIBS:intel
LIBS:audio
LIBS:interface
LIBS:digital-audio
LIBS:philips
LIBS:display
LIBS:cypress
LIBS:siliconi
LIBS:opto
LIBS:atmel
LIBS:contrib
LIBS:valves
LIBS:usrp_gpio_pa_switch-cache
EELAYER 25 0
EELAYER END
$Descr A4 11693 8268
encoding utf-8
Sheet 1 1
Title ""
Date ""
Rev ""
Comp ""
Comment1 ""
Comment2 ""
Comment3 ""
Comment4 ""
$EndDescr
$Comp
L PC817 U1
U 1 1 5900DCCF
P 5700 4050
F 0 "U1" H 5500 4250 50  0000 L CNN
F 1 "PC817" H 5700 4250 50  0000 L CNN
F 2 "Housings_DIP:DIP-4_W7.62mm" H 5500 3850 50  0000 L CIN
F 3 "" H 5700 4050 50  0000 L CNN
	1    5700 4050
	1    0    0    -1  
$EndComp
$Comp
L GNDD #PWR01
U 1 1 5900DD65
P 4700 4150
F 0 "#PWR01" H 4700 3900 50  0001 C CNN
F 1 "GNDD" H 4700 4000 50  0000 C CNN
F 2 "" H 4700 4150 50  0000 C CNN
F 3 "" H 4700 4150 50  0000 C CNN
	1    4700 4150
	1    0    0    -1  
$EndComp
$Comp
L +3.3V #PWR02
U 1 1 5900DD7B
P 4550 3650
F 0 "#PWR02" H 4550 3500 50  0001 C CNN
F 1 "+3.3V" H 4550 3790 50  0000 C CNN
F 2 "" H 4550 3650 50  0000 C CNN
F 3 "" H 4550 3650 50  0000 C CNN
	1    4550 3650
	1    0    0    -1  
$EndComp
$Comp
L R R1
U 1 1 5900DDBC
P 5250 3650
F 0 "R1" V 5330 3650 50  0000 C CNN
F 1 "1K" V 5250 3650 50  0000 C CNN
F 2 "Resistors_THT:Resistor_Horizontal_RM10mm" V 5180 3650 50  0001 C CNN
F 3 "" H 5250 3650 50  0000 C CNN
	1    5250 3650
	0    1    1    0   
$EndComp
$Comp
L GNDA #PWR03
U 1 1 5900E088
P 6050 4700
F 0 "#PWR03" H 6050 4450 50  0001 C CNN
F 1 "GNDA" H 6050 4550 50  0000 C CNN
F 2 "" H 6050 4700 50  0000 C CNN
F 3 "" H 6050 4700 50  0000 C CNN
	1    6050 4700
	1    0    0    -1  
$EndComp
$Comp
L +24V #PWR04
U 1 1 5900E43E
P 6400 3250
F 0 "#PWR04" H 6400 3100 50  0001 C CNN
F 1 "+24V" H 6400 3390 50  0000 C CNN
F 2 "" H 6400 3250 50  0000 C CNN
F 3 "" H 6400 3250 50  0000 C CNN
	1    6400 3250
	1    0    0    -1  
$EndComp
$Comp
L Q_PMOS_GDS Q1
U 1 1 590130FA
P 6650 3950
F 0 "Q1" H 6950 4000 50  0000 R CNN
F 1 "FQP27P06" H 7300 3900 50  0000 R CNN
F 2 "TO_SOT_Packages_THT:TO-220_Neutral123_Horizontal" H 6850 4050 50  0001 C CNN
F 3 "" H 6650 3950 50  0000 C CNN
	1    6650 3950
	1    0    0    1   
$EndComp
Text Label 6750 4450 1    60   ~ 0
VOUT
Wire Wire Line
	5400 3650 5400 3950
Wire Wire Line
	4700 4150 5400 4150
Wire Wire Line
	6000 4150 6050 4150
Wire Wire Line
	6750 4150 6750 4550
Wire Wire Line
	6350 3950 6450 3950
Wire Wire Line
	6400 3250 6400 3550
$Comp
L R R2
U 1 1 5900E04D
P 6400 3700
F 0 "R2" V 6480 3700 50  0000 C CNN
F 1 "10K" V 6400 3700 50  0000 C CNN
F 2 "Resistors_THT:Resistor_Horizontal_RM10mm" V 6330 3700 50  0001 C CNN
F 3 "" H 6400 3700 50  0000 C CNN
	1    6400 3700
	1    0    0    -1  
$EndComp
$Comp
L R R3
U 1 1 590DD564
P 6200 3950
F 0 "R3" V 6280 3950 50  0000 C CNN
F 1 "15K" V 6200 3950 50  0000 C CNN
F 2 "Resistors_THT:Resistor_Horizontal_RM10mm" V 6130 3950 50  0001 C CNN
F 3 "" H 6200 3950 50  0000 C CNN
	1    6200 3950
	0    1    1    0   
$EndComp
Wire Wire Line
	6000 3950 6050 3950
Wire Wire Line
	6400 3850 6400 3950
Connection ~ 6400 3950
$Comp
L PWR_FLAG #FLG05
U 1 1 590F598C
P 4700 4150
F 0 "#FLG05" H 4700 4245 50  0001 C CNN
F 1 "PWR_FLAG" H 4700 4330 50  0000 C CNN
F 2 "" H 4700 4150 50  0000 C CNN
F 3 "" H 4700 4150 50  0000 C CNN
	1    4700 4150
	1    0    0    -1  
$EndComp
$Comp
L PWR_FLAG #FLG06
U 1 1 590F59EF
P 5050 3650
F 0 "#FLG06" H 5050 3745 50  0001 C CNN
F 1 "PWR_FLAG" H 5050 3830 50  0000 C CNN
F 2 "" H 5050 3650 50  0000 C CNN
F 3 "" H 5050 3650 50  0000 C CNN
	1    5050 3650
	1    0    0    -1  
$EndComp
Wire Wire Line
	4550 3650 5100 3650
Connection ~ 5050 3650
$Comp
L PWR_FLAG #FLG07
U 1 1 590F5A5D
P 6050 4400
F 0 "#FLG07" H 6050 4495 50  0001 C CNN
F 1 "PWR_FLAG" H 6050 4580 50  0000 C CNN
F 2 "" H 6050 4400 50  0000 C CNN
F 3 "" H 6050 4400 50  0000 C CNN
	1    6050 4400
	0    1    1    0   
$EndComp
Wire Wire Line
	6050 4150 6050 4700
Connection ~ 6050 4400
Wire Wire Line
	6750 3750 6750 3450
Wire Wire Line
	6750 3450 6400 3450
Connection ~ 6400 3450
$Comp
L PWR_FLAG #FLG08
U 1 1 590F5D57
P 6750 3450
F 0 "#FLG08" H 6750 3545 50  0001 C CNN
F 1 "PWR_FLAG" H 6750 3630 50  0000 C CNN
F 2 "" H 6750 3450 50  0000 C CNN
F 3 "" H 6750 3450 50  0000 C CNN
	1    6750 3450
	1    0    0    -1  
$EndComp
Text Label 6400 3400 1    60   ~ 0
VIN
$Comp
L PWR_FLAG #FLG09
U 1 1 590F5DA5
P 6750 4550
F 0 "#FLG09" H 6750 4645 50  0001 C CNN
F 1 "PWR_FLAG" H 6750 4730 50  0000 C CNN
F 2 "" H 6750 4550 50  0000 C CNN
F 3 "" H 6750 4550 50  0000 C CNN
	1    6750 4550
	-1   0    0    1   
$EndComp
Text Label 4850 3650 2    60   ~ 0
GPIO
Text Label 4950 4150 0    60   ~ 0
GNDD
Text Label 6050 4700 1    60   ~ 0
GNDA
$Comp
L Screw_Terminal_1x02 J1
U 1 1 590F5FAF
P 3600 4250
F 0 "J1" H 3600 4500 50  0000 C TNN
F 1 "Screw_Terminal_1x02" V 3450 4250 50  0000 C TNN
F 2 "Connectors_Terminal_Blocks:TerminalBlock_Pheonix_PT-3.5mm_2pol" H 3600 4025 50  0001 C CNN
F 3 "" H 3575 4250 50  0001 C CNN
	1    3600 4250
	1    0    0    -1  
$EndComp
$Comp
L Screw_Terminal_1x02 J2
U 1 1 590F6068
P 8050 3700
F 0 "J2" H 8050 3950 50  0000 C TNN
F 1 "Screw_Terminal_1x02" V 7900 3700 50  0000 C TNN
F 2 "Connectors_Terminal_Blocks:TerminalBlock_Pheonix_PT-3.5mm_2pol" H 8050 3475 50  0001 C CNN
F 3 "" H 8025 3700 50  0001 C CNN
	1    8050 3700
	-1   0    0    1   
$EndComp
$Comp
L Screw_Terminal_1x02 J3
U 1 1 590F60A9
P 8050 4700
F 0 "J3" H 8050 4950 50  0000 C TNN
F 1 "Screw_Terminal_1x02" V 7900 4700 50  0000 C TNN
F 2 "Connectors_Terminal_Blocks:TerminalBlock_Pheonix_PT-3.5mm_2pol" H 8050 4475 50  0001 C CNN
F 3 "" H 8025 4700 50  0001 C CNN
	1    8050 4700
	-1   0    0    1   
$EndComp
Wire Wire Line
	3800 4350 4100 4350
Wire Wire Line
	3800 4150 4100 4150
Text Label 4100 4150 2    60   ~ 0
GPIO
Text Label 4100 4350 2    60   ~ 0
GNDD
Wire Wire Line
	7850 3600 7550 3600
Wire Wire Line
	7850 3800 7550 3800
Wire Wire Line
	7850 4600 7550 4600
Wire Wire Line
	7850 4800 7550 4800
Text Label 7550 3800 0    60   ~ 0
VIN
Text Label 7550 3600 0    60   ~ 0
GNDA
Text Label 7550 4600 0    60   ~ 0
VOUT
Text Label 7550 4800 0    60   ~ 0
GNDA
$EndSCHEMATC
